{
  "owner_id": "VItzY9wTcTXQ5ZI2HkfFhoam0eA2",
  "account_type": "Savings",
  "account_number": "652325561",
  "balance": 5250,
  "interest_rate": 0.03,
  "currency": "CZK",
  "transactions": [
    {
      "transaction_id": 1,
      "type": "Deposit",
      "amount": 2000,
      "timestamp": "2024-04-10T10:30:00Z"
    },
    {
      "transaction_id": 2,
      "type": "Withdrawal",
      "amount": 1000,
      "timestamp": "2024-04-10T12:30:00Z"
    }
  ]
}