{
  "user_id": "RmEKatinKubCGK5S10eRliiuSpk2",
  "name": "Josef",
  "surname": "Prkénko",
  "accounts": [
    {
      "account_type": "Savings",
      "account_number": "4653287917",
      "balance": 62513
    },
    {
      "account_type": "Account",
      "account_number": "2365497895",
      "balance": 13500
    }
  ]
}
