{
  "user_id": "x0OCnT3v7yVvmmgY2ilgAdw6Amo1",
  "name": "Pepik",
  "surname": "Pepiku",
  "accounts": [
    {
      "account_type": "Account",
      "account_number": "6511231111",
      "balance": 6000
    },
    {
      "account_type": "Loan",
      "account_number": "1995866655",
      "balance": 13500
    }
  ]
}