{
  "owner_id": "RmEKatinKubCGK5S10eRliiuSpk2",
  "account_type": "Savings",
  "account_number": "4653287917",
  "balance": 5000,
  "interest_rate": 0.05,
  "currency": "CZK",
  "transactions": [
    {
      "transaction_id": 1,
      "type": "Deposit",
      "amount": 100,
      "timestamp": "2024-04-10T10:30:00Z"
    },
    {
      "transaction_id": 2,
      "type": "Withdrawal",
      "amount": 350,
      "timestamp": "2024-04-10T12:30:00Z"
    }
  ]
}